COVID-19 Data Report
…
Model \(\blacktriangleright\) Apply “many models” pattern to create per-location models

The “many models” pattern was taught in Chapter 254 of the first edition of R For Data Science. It allows us to fit many models, while remaining in the context of a dataframe (rather than, for example, breaking out a for loop.)

I wrote the verbs fit_model_per_location(), get_model_pred_info(), and get_model_fit_info() for:

performing the fitting,

calculating the predictions, residuals, and goodness of fit for each model,

extracting each model’s coefficients and their significance values

(model_fits <- fit_model_per_location(global_filtered, combined_key, mod))

# A tibble: 109 × 3
# Groups:   combined_key [109]
  combined_key data                model 
  <chr>        <list>              <list>
1 Japan        <tibble [156 × 14]> <glm> 
2 Korea, South <tibble [155 × 14]> <glm> 
3 US           <tibble [156 × 14]> <glm> 
4 Thailand     <tibble [114 × 14]> <glm> 
# ℹ 105 more rows

(model_preds <- get_model_pred_info(model_fits))

# A tibble: 14,251 × 27
# Groups:   combined_key [109]
  combined_key date       cases deaths new_cases new_deaths new_cases_lag_0
  <chr>        <date>     <int>  <int>     <int>      <int>           <int>
1 Japan        2020-03-15  1059     36       264         14             264
2 Japan        2020-03-22  1728     56       669         20             669
3 Japan        2020-03-29  3525     87      1797         31            1797
4 Japan        2020-04-05  6951    138      3426         51            3426
# ℹ 14,247 more rows
# ℹ 20 more variables: new_cases_lag_1 <int>, new_cases_lag_2 <int>,
#   new_cases_lag_3 <int>, new_cases_lag_4 <int>, new_cases_lag_5 <int>,
#   new_cases_lag_6 <int>, new_cases_lag_7 <int>, new_cases_lag_8 <int>,
#   model <list>, null.deviance <dbl>, df.null <int>, logLik <dbl>, AIC <dbl>,
#   BIC <dbl>, deviance <dbl>, df.residual <int>, nobs <int>, pred <dbl>,
#   resid <dbl>, gof <dbl>

(model_fit_info <- get_model_fit_info(model_fits))

# A tibble: 545 × 9
# Groups:   combined_key [109]
  combined_key data     model  term        estimate std.error statistic  p.value
  <chr>        <list>   <list> <chr>          <dbl>     <dbl>     <dbl>    <dbl>
1 Japan        <tibble> <glm>  (Intercept)   0.221     0.0665      3.32 8.87e- 4
2 Japan        <tibble> <glm>  log(new_ca…  -0.0539    0.0197     -2.74 6.09e- 3
3 Japan        <tibble> <glm>  log(new_ca…   0.395     0.0399      9.90 4.17e-23
4 Japan        <tibble> <glm>  log(new_ca…   0.224     0.0394      5.68 1.32e- 8
# ℹ 541 more rows
# ℹ 1 more variable: sig_label <chr>
…
